{
    "swagger": "2.0",
    "info": {
        "contact": {}
    },
    "paths": {
        "/protected/": {
            "get": {
                "description": "test protected endpoint desc",
                "consumes": [
                    "application/json"
                ],
                "produces": [
                    "application/json"
                ],
                "tags": [
                    "Protected branch"
                ],
                "summary": "test protected endpoint",
                "responses": {
                    "200": {
                        "description": "OK",
                        "schema": {
                            "type": "json"
                        }
                    }
                }
            }
        }
    }
}